0	0	0	0	-	-	-
0.1	0	0	0	-	-	-
0.2	0	0	0	-	-	-
0.3	0	0	0	-	-	-
0.4	0	0	0	-	-	-
0.5	0	0	0	-	-	-
0.6	0.390625	5120	5	0.0180673	0.0247269	0.0215801
0.7	0.46875	6144	6	0.0180673	0.0259694	0.0216123
0.8	0.546875	7168	7	0.0184814	0.0248726	0.0210195
0.9	0.46875	6144	6	0.0172907	0.0223971	0.019593
1	0.46875	6144	6	0.0188358	0.025683	0.0215648
1.1	0.46875	6144	6	0.016945	0.0239044	0.0197178
1.2	0.46875	6144	6	0.0177746	0.0224063	0.0197885
1.3	0.546875	7168	7	0.0177646	0.0231185	0.0206904
1.4	0.46875	6144	6	0.0170323	0.0211847	0.0191603
1.5	0.46875	6144	6	0.0173407	0.0217714	0.0191542
1.6	0.546875	7168	7	0.0166145	0.0203792	0.0183544
1.7	0.46875	6144	6	0.0164846	0.0211184	0.0185393
1.8	0.46875	6144	6	0.0164996	0.0197169	0.0179826
1.9	0.46875	6144	6	0.0162555	0.0200436	0.0177879
2	0.546875	7168	7	0.0159891	0.0191223	0.0176503
2.1	0.46875	6144	6	0.0164437	0.0187204	0.0176132
2.2	0.46875	6144	6	0.0165214	0.0187981	0.0175316
2.3	0.546875	7168	7	0.0156908	0.0185434	0.0168064
2.4	0.46875	6144	6	0.0156797	0.0182142	0.0169616
2.5	0.46875	6144	6	0.0156571	0.0185434	0.0169365
2.6	0.46875	6144	6	0.0166171	0.0185434	0.0174017
2.7	0.46875	6144	6	0.0157255	0.0181171	0.0168973
2.8	0.546875	7168	7	0.0156571	0.0185434	0.0170917
2.9	0.46875	6144	6	0.0158152	0.0185907	0.0171222
3	0.46875	6144	6	0.0159163	0.0185539	0.0172121
3.1	0.546875	7168	7	0.0156937	0.017848	0.016664
3.2	0.46875	6144	6	0.0158022	0.0184927	0.0171996
3.3	0.46875	6144	6	0.0160089	0.0182036	0.0170715
3.4	0.46875	6144	6	0.0162329	0.0181761	0.0172427
3.5	0.46875	6144	6	0.0162511	0.0186587	0.0176337
3.6	0.46875	6144	6	0.0167032	0.0201958	0.0182862
3.7	0.546875	7168	7	0.0165747	0.0209227	0.0185512
3.8	0.46875	6144	6	0.0165598	0.0199688	0.0183774
3.9	0.46875	6144	6	0.0167494	0.0207734	0.0187527
4	0.546875	7168	7	0.0166682	0.0205059	0.0185982
4.1	0.46875	6144	6	0.0174871	0.0221046	0.0194089
4.2	0.46875	6144	6	0.0178708	0.0228691	0.0202102
4.3	0.46875	6144	6	0.0177039	0.0224189	0.0197046
4.4	0.46875	6144	6	0.0178349	0.0250362	0.0211205
4.5	0.46875	6144	6	0.0183625	0.0241746	0.0209373
4.6	0.546875	7168	7	0.0191774	0.0264726	0.0228525
4.7	0.46875	6144	6	0.0185703	0.0254491	0.0218053
4.8	0.46875	6144	6	0.0182706	0.0279959	0.0228127
4.9	0.546875	7168	7	0.0189828	0.0281969	0.022863
5	0.46875	6144	6	0.0194674	0.0299894	0.0235054
5.1	0.46875	6144	6	0.0187762	0.028867	0.0224552
5.2	0.46875	6144	6	0.0201325	0.0308248	0.0241436
5.3	0.46875	6144	6	0.0203406	0.0306181	0.025338
5.4	0.46875	6144	6	0.0208605	0.0308553	0.0261836
5.5	0.546875	7168	7	0.0225258	0.0318575	0.0272465
5.6	0.46875	6144	6	0.0204026	0.0378853	0.0288302
5.7	0.546875	7168	7	0.0199699	0.0304348	0.0239701
5.8	0.46875	6144	6	0.020863	0.033114	0.0269543
5.9	0.46875	6144	6	0.020863	0.0335822	0.0264296
6	0.46875	6144	6	0.0253145	0.0390999	0.0320078
6.1	0.46875	6144	6	0.0203867	0.0343792	0.0268418
6.2	0.46875	6144	6	0.0223533	0.0375355	0.0319542
6.3	0.46875	6144	6	0.0281243	0.0536535	0.0399123
6.4	0.546875	7168	7	0.0252165	0.0390019	0.0322694
6.5	0.078125	1024	1	0.0273743	0.0273743	0.0273743
6.6	0.703125	9216	9	0.0731376	0.141123	0.107686
6.7	0.234375	3072	3	0.0621388	0.116882	0.0872971
6.8	0.078125	1024	1	0.185903	0.185903	0.185903
6.9	0.15625	2048	2	0.178583	0.179925	0.179254
7	0	0	0	-	-	-
7.1	0.078125	1024	1	0.179332	0.179332	0.179332
7.2	0.15625	2048	2	0.174611	0.181518	0.178065
7.3	0.15625	2048	2	0.163977	0.168863	0.16642
7.4	0	0	0	-	-	-
7.5	0.390625	5120	5	0.158803	0.181126	0.169131
7.6	0.078125	1024	1	0.186202	0.186202	0.186202
7.7	0.3125	4096	4	0.167233	0.19722	0.177855
7.8	0.078125	1024	1	0.181124	0.181124	0.181124
7.9	0.078125	1024	1	0.17413	0.17413	0.17413
8	0	0	0	-	-	-
8.1	0.234375	3072	3	0.182179	0.184861	0.18352
8.2	0	0	0	-	-	-
8.3	0	0	0	-	-	-
8.4	0.078125	1024	1	0.181412	0.181412	0.181412
8.5	0.390625	5120	5	0.164002	0.182753	0.173908
8.6	0.546875	7168	7	0.157889	0.173651	0.16322
8.7	1.17188	15360	15	0.0321655	0.160353	0.0983272
8.8	0.46875	6144	6	0.0203867	0.0316851	0.0256649
8.9	0.3125	4096	4	0.0223533	0.0507978	0.0338064
9	0.625	8192	8	0.0334635	0.0617406	0.0505284
9.1	0.3125	4096	4	0.0288232	0.0479839	0.0344959
9.2	0	0	0	-	-	-
9.3	1.09375	14336	14	0.0225905	0.170025	0.094859
9.4	0.46875	6144	6	0.0177194	0.033114	0.0252937
9.5	0.46875	6144	6	0.0199699	0.0304348	0.024751
9.6	0.546875	7168	7	0.0203867	0.0316851	0.0242
9.7	0.46875	6144	6	0.0203867	0.0316851	0.0259024
9.8	0.46875	6144	6	0.0199699	0.0304348	0.024009
9.9	0.46875	6144	6	0.0196022	0.030067	0.0239924
10	0.46875	6144	6	0.0192753	0.0283509	0.0227145
10.1	0.546875	7168	7	0.0192753	0.0283509	0.0234263
10.2	0.390625	5120	5	0.0192753	0.0293316	0.0226423
10.3	0.546875	7168	7	0.0192753	0.0293316	0.0236157
10.4	0.546875	7168	7	0.0184814	0.0259694	0.0213999
10.5	0.46875	6144	6	0.0184814	0.0259694	0.0212825
10.6	0.46875	6144	6	0.0180673	0.0255552	0.0211327
10.7	0.46875	6144	6	0.0177194	0.0236832	0.0201283
10.8	0.46875	6144	6	0.0178861	0.0241833	0.0206045
10.9	0.546875	7168	7	0.0175655	0.0232215	0.0203425
11	0.46875	6144	6	0.0175655	0.0236832	0.0199867
11.1	0.46875	6144	6	0.0171675	0.0220276	0.019437
11.2	0.546875	7168	7	0.016945	0.02136	0.0184997
11.3	0.46875	6144	6	0.016945	0.02136	0.0189371
11.4	0.46875	6144	6	0.0164218	0.0200676	0.018024
11.5	0.46875	6144	6	0.0163506	0.0197903	0.017883
11.6	0.546875	7168	7	0.016219	0.0191821	0.0177879
11.7	0.46875	6144	6	0.016158	0.0189991	0.0174101
11.8	0.46875	6144	6	0.0160445	0.0186587	0.0173094
11.9	0.546875	7168	7	0.0159412	0.0183485	0.0169052
12	0.46875	6144	6	0.0159412	0.0183485	0.0170967
12.1	0.46875	6144	6	0.0158928	0.0182036	0.0169762
12.2	0.46875	6144	6	0.0156056	0.0182036	0.0166331
12.3	0.46875	6144	6	0.0156797	0.017564	0.0165881
12.4	0.546875	7168	7	0.0156419	0.0175834	0.0167137
12.5	0.46875	6144	6	0.0156797	0.017564	0.0166173
12.6	0.46875	6144	6	0.0156419	0.0174615	0.016558
12.7	0.546875	7168	7	0.0156419	0.0175834	0.0164392
12.8	0.46875	6144	6	0.0156419	0.0175834	0.016572
12.9	0.46875	6144	6	0.0156797	0.017564	0.0166065
13	0.46875	6144	6	0.0157189	0.0176817	0.0166651
13.1	0.46875	6144	6	0.0158022	0.0179318	0.0168004
13.2	0.546875	7168	7	0.0157189	0.0177821	0.0168478
13.3	0.46875	6144	6	0.0158022	0.0179318	0.0168171
13.4	0.46875	6144	6	0.0158022	0.0188248	0.0173382
13.5	0.546875	7168	7	0.0160999	0.0196108	0.0173161
13.6	0.46875	6144	6	0.0160445	0.0191069	0.0174452
13.7	0.46875	6144	6	0.0166454	0.0200156	0.018111
13.8	0.46875	6144	6	0.0164894	0.0200156	0.0182088
13.9	0.46875	6144	6	0.0178932	0.02136	0.0191352
14	0.546875	7168	7	0.0174448	0.0220418	0.0193813
14.1	0.46875	6144	6	0.0174135	0.0230937	0.0200355
14.2	0.46875	6144	6	0.0180953	0.0247453	0.020879
14.3	0.46875	6144	6	0.0177194	0.0232215	0.0205583
14.4	0.546875	7168	7	0.0176551	0.022794	0.0197692
14.5	0.46875	6144	6	0.0185899	0.0259794	0.0222984
14.6	0.46875	6144	6	0.0177194	0.0236872	0.0201973
14.7	0.46875	6144	6	0.0189883	0.0268581	0.0219317
14.8	0.46875	6144	6	0.0184814	0.0254427	0.0218445
14.9	0.546875	7168	7	0.0184425	0.0269393	0.0226773
15	0.46875	6144	6	0.0194488	0.0299708	0.0239712
15.1	0.46875	6144	6	0.0212066	0.0328071	0.0269849
15.2	0.546875	7168	7	0.0189828	0.0281089	0.022777
15.3	0.46875	6144	6	0.0197775	0.0267867	0.0234889
15.4	0.46875	6144	6	0.0229126	0.0291104	0.02515
15.5	0.46875	6144	6	0.0207819	0.0291947	0.025568
15.6	0.46875	6144	6	0.0218421	0.0324612	0.0256958
15.7	0.46875	6144	6	0.0232642	0.034725	0.02759
15.8	0.546875	7168	7	0.0202178	0.0343875	0.0269583
15.9	0.46875	6144	6	0.0199699	0.0321183	0.0254315
16	0.546875	7168	7	0.0175655	0.0232215	0.0201362
16.1	0.390625	5120	5	0.0226098	0.0349452	0.0287524
16.2	0.546875	7168	7	0.0211793	0.0335895	0.0272524
16.3	0.46875	6144	6	0.0203867	0.0326377	0.0262199
16.4	0.3125	4096	4	0.026951	0.0650718	0.0425356
16.5	0.546875	7168	7	0.0483328	0.0766099	0.0646925
16.6	0.390625	5120	5	0.0462685	0.0542588	0.0502656
16.7	0.390625	5120	5	0.0669817	0.0749721	0.0709788
16.8	0.390625	5120	5	0.0796854	0.0872543	0.0839125
16.9	0.390625	5120	5	0.116475	0.124044	0.120039
17	0.3125	4096	4	0.159493	0.167061	0.163277
17.1	0.46875	6144	6	0.162175	0.178288	0.169847
17.2	0.390625	5120	5	0.173819	0.181388	0.177383
17.3	0.234375	3072	3	0.17516	0.182003	0.178582
17.4	0.15625	2048	2	0.182852	0.187738	0.185295
17.5	0.390625	5120	5	0.176528	0.184097	0.180533
17.6	0.3125	4096	4	0.175713	0.184719	0.18109
17.7	0.078125	1024	1	0.174228	0.174228	0.174228
17.8	0	0	0	-	-	-
17.9	0	0	0	-	-	-
18	0.15625	2048	2	0.163977	0.168863	0.16642
18.1	0.078125	1024	1	0.209103	0.209103	0.209103
18.2	0.234375	3072	3	0.169586	0.177892	0.174688
18.3	0.234375	3072	3	0.167669	0.176675	0.17344
18.4	0	0	0	-	-	-
18.5	0.078125	1024	1	0.271718	0.271718	0.271718
18.6	0	0	0	-	-	-
18.7	0	0	0	-	-	-
18.8	0	0	0	-	-	-
18.9	0	0	0	-	-	-
19	0	0	0	-	-	-
19.1	0	0	0	-	-	-
19.2	0	0	0	-	-	-
19.3	0	0	0	-	-	-
19.4	0	0	0	-	-	-
19.5	0	0	0	-	-	-
19.6	0	0	0	-	-	-
19.7	0	0	0	-	-	-
19.8	0	0	0	-	-	-
19.9	0	0	0	-	-	-
