0	0	0	0	-	-	-
0.1	1.31072	16384	16	0.0216469	0.0555322	0.0422796
0.2	1.80224	22528	22	0.0546896	0.0559963	0.055275
0.3	2.12992	26624	26	0.0470016	0.0559989	0.0522236
0.4	2.21184	27648	27	0.0466977	0.0490043	0.0476857
0.5	2.29376	28672	28	0.0466443	0.048951	0.047648
0.6	2.62144	32768	32	0.0408017	0.0479137	0.0432228
0.7	2.70336	33792	33	0.0406497	0.0429777	0.0420593
0.8	2.94912	36864	36	0.0367138	0.0422497	0.0397327
0.9	3.11296	38912	38	0.0367724	0.0389271	0.0378022
1	3.2768	40960	40	0.0346445	0.0389885	0.0368839
1.1	4.01408	50176	49	0.0302632	0.0405111	0.0330378
1.2	4.25984	53248	52	0.0296498	0.0319965	0.0310457
1.3	4.25984	53248	52	0.0296925	0.0319432	0.0310905
1.4	4.17792	52224	51	0.0297139	0.0319859	0.0310568
1.5	4.25984	53248	52	0.0297566	0.0320072	0.0310252
1.6	4.25984	53248	52	0.0297993	0.0319353	0.0310053
1.7	4.25984	53248	52	0.029842	0.031978	0.0310905
1.8	4.17792	52224	51	0.0296526	0.0319993	0.0311093
1.9	4.25984	53248	52	0.0296953	0.031946	0.0310514
2	4.25984	53248	52	0.029738	0.0319887	0.031077
2.1	4.25984	53248	52	0.0297807	0.0319914	0.0310571
2.2	4.25984	53248	52	0.0298021	0.0319381	0.0309848
2.3	4.17792	52224	51	0.0298448	0.0319808	0.0310762
2.4	4.25984	53248	52	0.0296555	0.0320021	0.0310507
2.5	4.25984	53248	52	0.0296982	0.0319702	0.0310693
2.6	4.25984	53248	52	0.0297408	0.0319915	0.0311282
2.7	4.25984	53248	52	0.0297835	0.0319942	0.0310366
2.8	4.17792	52224	51	0.0298262	0.0319622	0.0310698
2.9	4.25984	53248	52	0.0296583	0.0319836	0.0309975
3	4.25984	53248	52	0.0296796	0.0320049	0.0310161
3.1	4.25984	53248	52	0.0297223	0.031973	0.03118
3.2	4.25984	53248	52	0.0296477	0.031997	0.0310096
3.3	4.17792	52224	51	0.0297863	0.031941	0.031083
3.4	4.25984	53248	52	0.029829	0.0319837	0.0310685
3.5	4.25984	53248	52	0.0296611	0.0320077	0.0310416
3.6	4.25984	53248	52	0.0296824	0.0319544	0.031048
3.7	4.25984	53248	52	0.0296505	0.0319758	0.0310089
3.8	4.17792	52224	51	0.0296718	0.0319998	0.0311302
3.9	4.25984	53248	52	0.0297892	0.0319652	0.0310416
4	4.096	51200	50	0.0298319	0.0375839	0.0321096
4.1	3.35872	41984	41	0.0337599	0.0386266	0.0357438
4.2	3.11296	38912	38	0.0367252	0.0388799	0.0377696
4.3	3.03104	37888	37	0.0366506	0.0410959	0.038194
4.4	2.70336	33792	33	0.0407706	0.0429999	0.0418758
4.5	2.62144	32768	32	0.04068	0.0429466	0.0418161
4.6	2.29376	28672	28	0.0416613	0.0481067	0.0462508
4.7	2.29376	28672	28	0.0467067	0.04884	0.047714
4.8	2.12992	26624	26	0.046688	0.0527681	0.0482739
4.9	1.80224	22528	22	0.0538481	0.0559627	0.0551162
5	1.88416	23552	23	0.0545628	0.0559654	0.0552554
5.1	1.80224	22528	22	0.0543148	0.0586828	0.0561832
5.2	1.72032	21504	21	0.0576455	0.0589175	0.0581943
5.3	1.6384	20480	20	0.0576508	0.0623442	0.059035
5.4	1.47456	18432	18	0.0637869	0.0669815	0.0657565
5.5	1.47456	18432	18	0.0647149	0.0670056	0.0661384
5.6	1.47456	18432	18	0.0646616	0.0667976	0.0661005
5.7	1.47456	18432	18	0.0653016	0.0669736	0.0660829
5.8	1.39264	17408	17	0.0653789	0.0710936	0.0668928
5.9	1.14688	14336	14	0.0749976	0.0830003	0.0803948
6	1.14688	14336	14	0.0807737	0.0829843	0.0821032
6.1	1.14688	14336	14	0.081275	0.0829684	0.0821276
6.2	1.14688	14336	14	0.0808964	0.0829524	0.0820545
6.3	0.98304	12288	12	0.0824164	0.0982271	0.088458
6.4	0.8192	10240	10	0.100672	0.102344	0.10144
6.5	0.90112	11264	11	0.100808	0.102731	0.10161
6.6	0.90112	11264	11	0.100774	0.102696	0.101576
6.7	0.8192	10240	10	0.100739	0.106934	0.103057
6.8	0.8192	10240	10	0.107377	0.116918	0.113078
6.9	0.73728	9216	9	0.115057	0.116747	0.115959
7	0.8192	10240	10	0.114886	0.116926	0.11603
7.1	0.73728	9216	9	0.114715	0.117003	0.116101
7.2	0.73728	9216	9	0.114971	0.116662	0.115921
7.3	0.65536	8192	8	0.114801	0.126398	0.118399
7.4	0.57344	7168	7	0.131841	0.153305	0.142358
7.5	0.49152	6144	6	0.16227	0.234633	0.198224
7.6	0.57344	7168	7	0.15187	0.153926	0.15286
7.7	0.24576	3072	3	0.152198	0.153545	0.152987
7.8	0.24576	3072	3	0.198835	0.228873	0.213854
7.9	0.24576	3072	3	0.227838	0.270163	0.246498
8	0.65536	8192	8	0.0293102	0.0947528	0.0621565
8.1	0.73728	9216	9	0.104387	0.116505	0.114256
8.2	0.8192	10240	10	0.114814	0.116932	0.11606
8.3	0.73728	9216	9	0.11507	0.116761	0.116067
8.4	0.8192	10240	10	0.108729	0.116342	0.113871
8.5	0.90112	11264	11	0.100924	0.108172	0.103133
8.6	0.90112	11264	11	0.100753	0.102812	0.101485
8.7	0.90112	11264	11	0.100718	0.102777	0.10145
8.8	0.90112	11264	11	0.100684	0.102742	0.101325
8.9	1.14688	14336	14	0.0816517	0.0982064	0.0873885
9	1.14688	14336	14	0.0807717	0.0829824	0.0819776
9.1	1.14688	14336	14	0.0812731	0.0829664	0.0822685
9.2	1.14688	14336	14	0.0808945	0.0829318	0.0820979
9.3	1.31072	16384	16	0.0675532	0.0829158	0.0774153
9.4	1.47456	18432	18	0.0646705	0.0668065	0.0660723
9.5	1.47456	18432	18	0.0653105	0.0669825	0.0661102
9.6	1.47456	18432	18	0.0651026	0.0670066	0.0660926
9.7	1.47456	18432	18	0.0649719	0.0668759	0.0660547
9.8	1.6384	20480	20	0.0582839	0.0669533	0.0635983
9.9	1.72032	21504	21	0.057708	0.0589586	0.0583619
10	1.72032	21504	21	0.0559453	0.0589613	0.0581432
10.1	1.88416	23552	23	0.0544867	0.0568493	0.0553763
10.2	1.88416	23552	23	0.053836	0.0559507	0.0552221
10.3	2.048	25600	25	0.0475721	0.0559161	0.0522352
10.4	2.29376	28672	28	0.0467081	0.0487108	0.047503
10.5	2.21184	27648	27	0.0466548	0.0487881	0.0475006
10.6	2.62144	32768	32	0.0406788	0.0484841	0.0434536
10.7	2.70336	33792	33	0.0407775	0.0428548	0.0418097
10.8	2.94912	36864	36	0.0366682	0.0429535	0.0399029
10.9	3.11296	38912	38	0.0366709	0.0389589	0.0377926
11	3.35872	41984	41	0.0340602	0.0388282	0.036758
11.1	4.01408	50176	49	0.0298523	0.0360043	0.0324874
11.2	4.17792	52224	51	0.0298736	0.0319883	0.0310966
11.3	4.25984	53248	52	0.0296843	0.0319563	0.0309996
11.4	4.25984	53248	52	0.0296523	0.031999	0.0310444
11.5	4.25984	53248	52	0.0296737	0.0319244	0.0309336
11.6	4.25984	53248	52	0.0297164	0.0319671	0.0310572
11.7	4.17792	52224	51	0.0298551	0.0319911	0.0311438
11.8	4.25984	53248	52	0.0298764	0.0319164	0.0310181
11.9	4.25984	53248	52	0.0297085	0.0319591	0.03107
12	4.25984	53248	52	0.0296552	0.0320018	0.0310379
12.1	4.25984	53248	52	0.0296765	0.0319485	0.0309515
12.2	4.17792	52224	51	0.0297192	0.0319699	0.0310304
12.3	4.25984	53248	52	0.0297619	0.0319939	0.0310699
12.4	4.25984	53248	52	0.0299006	0.0319406	0.0310885
12.5	4.25984	53248	52	0.0299219	0.0319619	0.0310564
12.6	4.25984	53248	52	0.029658	0.0320046	0.0310296
12.7	4.17792	52224	51	0.0297007	0.0319513	0.0310508
12.8	4.25984	53248	52	0.029722	0.031994	0.0309905
12.9	4.25984	53248	52	0.0297647	0.0319967	0.0310353
13	4.25984	53248	52	0.0299034	0.0319434	0.0311083
13.1	4.25984	53248	52	0.0299461	0.0319861	0.0310551
13.2	4.17792	52224	51	0.0296608	0.0320074	0.031064
13.3	4.25984	53248	52	0.0297035	0.0319541	0.0310353
13.4	4.25984	53248	52	0.0297462	0.0319968	0.0310871
13.5	4.25984	53248	52	0.0297675	0.0319995	0.0310025
13.6	4.25984	53248	52	0.0298102	0.0319462	0.0310282
13.7	4.17792	52224	51	0.0299489	0.0319889	0.0311647
13.8	4.25984	53248	52	0.0296636	0.0319356	0.0310083
13.9	4.25984	53248	52	0.0297063	0.0319783	0.0310794
14	4.17792	52224	51	0.029749	0.0336743	0.0312081
14.1	3.2768	40960	40	0.0337516	0.038293	0.0356243
14.2	3.19488	39936	39	0.036717	0.039005	0.0378092
14.3	2.94912	36864	36	0.036645	0.0397624	0.0380422
14.4	2.70336	33792	33	0.0406877	0.0429357	0.0419618
14.5	2.70336	33792	33	0.0407864	0.0429971	0.0418095
14.6	2.29376	28672	28	0.0416931	0.0490024	0.0463005
14.7	2.29376	28672	28	0.0467385	0.0489491	0.0476663
14.8	2.12992	26624	26	0.0467198	0.0539732	0.0483428
14.9	1.80224	22528	22	0.0538772	0.0559572	0.0552049
15	1.88416	23552	23	0.0544985	0.0559599	0.0552505
15.1	1.80224	22528	22	0.0547519	0.0587146	0.0562553
15.2	1.72032	21504	21	0.0576986	0.0589679	0.0584854
15.3	1.6384	20480	20	0.0577013	0.06228	0.059139
15.4	1.47456	18432	18	0.0637226	0.0666853	0.0657425
15.5	1.47456	18432	18	0.0651893	0.0669387	0.0659524
15.6	1.47456	18432	18	0.0650587	0.0669627	0.0660107
15.7	1.47456	18432	18	0.0648507	0.0669867	0.0660486
15.8	1.39264	17408	17	0.0647201	0.0720294	0.0669779
15.9	1.14688	14336	14	0.0749334	0.0829174	0.0805119
16	1.14688	14336	14	0.0808801	0.0829015	0.0820706
16.1	1.14688	14336	14	0.0806908	0.0828855	0.0819975
16.2	1.14688	14336	14	0.0808135	0.0828695	0.082048
16.3	0.90112	11264	11	0.0819868	0.0969895	0.0880092
16.4	0.90112	11264	11	0.0987975	0.101915	0.101058
16.5	0.90112	11264	11	0.100766	0.102859	0.10152
16.6	0.90112	11264	11	0.100731	0.105539	0.10194
16.7	0.8192	10240	10	0.101867	0.108139	0.104564
16.8	0.73728	9216	9	0.109947	0.116758	0.113656
16.9	0.8192	10240	10	0.114896	0.116587	0.115802
17	0.73728	9216	9	0.114726	0.116936	0.115922
17.1	0.73728	9216	9	0.115152	0.116843	0.116197
17.2	0.8192	10240	10	0.114811	0.116502	0.115767
17.3	0.65536	8192	8	0.115408	0.128238	0.119626
17.4	0.57344	7168	7	0.13268	0.152779	0.143432
17.5	0.57344	7168	7	0.151742	0.153763	0.152655
17.6	0.57344	7168	7	0.151707	0.15371	0.152711
17.7	0.57344	7168	7	0.151654	0.153675	0.152767
17.8	0.49152	6144	6	0.151947	0.154003	0.152975
17.9	0.57344	7168	7	0.152275	0.15395	0.153079
18	0.4096	5120	5	0.154241	0.183897	0.169242
18.1	0.4096	5120	5	0.189878	0.218534	0.204133
18.2	0.32768	4096	4	0.220729	0.222249	0.221584
18.3	0.4096	5120	5	0.220713	0.222923	0.221732
18.4	0.4096	5120	5	0.220697	0.222907	0.221471
18.5	0.32768	4096	4	0.220835	0.222355	0.221595
18.6	0	0	0	-	-	-
18.7	0.32768	4096	4	0.281958	0.367974	0.319846
18.8	0	0	0	-	-	-
18.9	0	0	0	-	-	-
19	0.08192	1024	1	0.449633	0.449633	0.449633
19.1	0.08192	1024	1	0.485462	0.485462	0.485462
19.2	0.49152	6144	6	0.354067	0.485793	0.406303
19.3	0	0	0	-	-	-
19.4	0.08192	1024	1	0.485937	0.485937	0.485937
19.5	0.08192	1024	1	0.480806	0.480806	0.480806
19.6	0.24576	3072	3	0.404313	0.47431	0.439145
19.7	0	0	0	-	-	-
19.8	0	0	0	-	-	-
19.9	0	0	0	-	-	-
