0	0	0	0	-	-	-
0.1	0	0	0	-	-	-
0.2	0	0	0	-	-	-
0.3	0.73728	9216	9	0.182847	0.233297	0.212851
0.4	0.49152	6144	6	0.188614	0.259569	0.217265
0.5	0.57344	7168	7	0.171203	0.266726	0.210578
0.6	0.90112	11264	11	0.160645	0.2575	0.214099
0.7	0.90112	11264	11	0.158245	0.244177	0.201521
0.8	0.98304	12288	12	0.164046	0.245873	0.204504
0.9	1.47456	18432	18	0.130294	0.247569	0.177933
1	1.14688	14336	14	0.145609	0.217862	0.181541
1.1	1.14688	14336	14	0.156863	0.226385	0.190649
1.2	1.88416	23552	23	0.143616	0.24583	0.192616
1.3	1.55648	19456	19	0.146643	0.232508	0.183863
1.4	1.88416	23552	23	0.13472	0.239665	0.188053
1.5	2.94912	36864	36	0.103758	0.220881	0.161826
1.6	1.31072	16384	16	0.136688	0.196636	0.166406
1.7	2.53952	31744	31	0.122126	0.220177	0.169874
1.8	1.88416	23552	23	0.142869	0.217777	0.18065
1.9	3.85024	48128	47	0.116096	0.230396	0.171125
2	3.11296	38912	38	0.121812	0.211612	0.162796
2.1	3.35872	41984	41	0.124899	0.217404	0.171884
2.2	9.33888	116736	114	0.031724	0.220465	0.110045
2.3	4.096	51200	50	0.0323586	0.0348813	0.0333566
2.4	4.01408	50176	49	0.0323827	0.0350574	0.03346
2.5	4.01408	50176	49	0.0315427	0.0359054	0.0338531
2.6	3.44064	43008	42	0.0324281	0.0357187	0.0337667
2.7	0	0	0	-	-	-
2.8	3.52256	44032	43	0.13775	0.226143	0.181327
2.9	3.35872	41984	41	0.133968	0.230569	0.183151
3	4.99712	62464	61	0.103065	0.229535	0.165393
3.1	5.7344	71680	70	0.05705	0.198463	0.12723
3.2	2.4576	30720	30	0.0884461	0.149642	0.118452
3.3	4.34176	54272	53	0.073952	0.184106	0.127934
3.4	1.6384	20480	20	0.127252	0.166687	0.146901
3.5	2.78528	34816	34	0.131797	0.220266	0.173943
3.6	2.8672	35840	35	0.136232	0.224692	0.181691
3.7	2.4576	30720	30	0.121502	0.220927	0.170441
3.8	1.72032	21504	21	0.138141	0.213066	0.171475
3.9	3.2768	40960	40	0.0990372	0.22978	0.158538
4	0.73728	9216	9	0.152355	0.191882	0.176138
4.1	1.6384	20480	20	0.152778	0.241364	0.194614
4.2	0.98304	12288	12	0.148945	0.241695	0.194865
4.3	1.80224	22528	22	0.137072	0.243391	0.185515
4.4	1.96608	24576	24	0.114209	0.224607	0.169351
4.5	0.57344	7168	7	0.163548	0.201727	0.185759
4.6	0.98304	12288	12	0.163921	0.247114	0.205062
4.7	0.90112	11264	11	0.169705	0.243349	0.207271
4.8	0.57344	7168	7	0.200039	0.257333	0.231221
4.9	0.90112	11264	11	0.16354	0.261759	0.208553
5	0.4096	5120	5	0.165185	0.247071	0.202578
5.1	0.24576	3072	3	0.19144	0.251498	0.22602
5.2	0.4096	5120	5	0.180865	0.273674	0.229454
5.3	0.57344	7168	7	0.194866	0.260351	0.239116
5.4	0.65536	8192	8	0.171994	0.263413	0.209682
5.5	0.65536	8192	8	0.192805	0.255551	0.22708
5.6	0.32768	4096	4	0.216313	0.272266	0.241559
5.7	0.32768	4096	4	0.200259	0.264405	0.222775
5.8	0.57344	7168	7	0.191058	0.264735	0.222435
5.9	0.49152	6144	6	0.194111	0.247317	0.221852
6	0.16384	2048	2	0.228541	0.264032	0.246286
6.1	0.24576	3072	3	0.24663	0.288938	0.266646
6.2	0.16384	2048	2	0.312488	0.330229	0.321358
6.3	0.08192	1024	1	0.297792	0.297792	0.297792
6.4	0.08192	1024	1	0.296757	0.296757	0.296757
6.5	0.24576	3072	3	0.303931	0.344874	0.324403
6.6	0.08192	1024	1	0.275573	0.275573	0.275573
6.7	0	0	0	-	-	-
6.8	0.16384	2048	2	0.270781	0.344501	0.307641
6.9	0	0	0	-	-	-
7	0.24576	3072	3	0.373851	0.407968	0.391137
7.1	0.08192	1024	1	0.404202	0.404202	0.404202
7.2	0.08192	1024	1	0.385418	0.385418	0.385418
7.3	0.08192	1024	1	0.448189	0.448189	0.448189
7.4	0	0	0	-	-	-
7.5	0.08192	1024	1	0.489984	0.489984	0.489984
7.6	0	0	0	-	-	-
7.7	0	0	0	-	-	-
7.8	0	0	0	-	-	-
7.9	0	0	0	-	-	-
8	0	0	0	-	-	-
8.1	0.08192	1024	1	0.730632	0.730632	0.730632
8.2	0	0	0	-	-	-
8.3	0	0	0	-	-	-
8.4	0.32768	4096	4	0.0452428	0.103147	0.0731948
8.5	0	0	0	-	-	-
8.6	0.08192	1024	1	0.287379	0.287379	0.287379
8.7	0	0	0	-	-	-
8.8	0.08192	1024	1	0.353576	0.353576	0.353576
8.9	0.73728	9216	9	0.190134	0.363464	0.280061
9	0.08192	1024	1	0.258664	0.258664	0.258664
9.1	0.16384	2048	2	0.279483	0.313608	0.296546
9.2	0.32768	4096	4	0.249794	0.323496	0.291082
9.3	0.16384	2048	2	0.274683	0.326558	0.300621
9.4	0.32768	4096	4	0.244994	0.27364	0.26
9.5	0.32768	4096	4	0.231671	0.317662	0.273642
9.6	0.16384	2048	2	0.251099	0.297512	0.274306
9.7	0.24576	3072	3	0.233689	0.300574	0.264173
9.8	0.16384	2048	2	0.277702	0.287251	0.282477
9.9	0.32768	4096	4	0.192034	0.268467	0.227861
10	0.4096	5120	5	0.221045	0.255144	0.238504
10.1	0.57344	7168	7	0.16951	0.284147	0.227999
10.2	0.73728	9216	9	0.165761	0.257171	0.211087
10.3	0.4096	5120	5	0.192	0.252041	0.223112
10.4	0.65536	8192	8	0.17051	0.279678	0.219121
10.5	0.65536	8192	8	0.174937	0.249971	0.212795
10.6	0.49152	6144	6	0.191635	0.259859	0.22552
10.7	1.14688	14336	14	0.161996	0.265651	0.209727
10.8	0.73728	9216	9	0.163649	0.223657	0.195018
10.9	1.47456	18432	18	0.144941	0.249929	0.198573
11	0.8192	10240	10	0.157493	0.224318	0.188994
11.1	1.14688	14336	14	0.145569	0.235571	0.192813
11.2	2.048	25600	25	0.117321	0.234537	0.168993
11.3	1.06496	13312	13	0.144857	0.207561	0.176734
11.4	1.96608	24576	24	0.139819	0.232468	0.180966
11.5	2.21184	27648	27	0.118329	0.231433	0.167271
11.6	1.72032	21504	21	0.14182	0.208553	0.173984
11.7	2.62144	32768	32	0.12586	0.23346	0.173729
11.8	2.8672	35840	35	0.128946	0.221502	0.175731
11.9	3.44064	43008	42	0.127971	0.223198	0.1763
12	4.9152	61440	60	0.0888585	0.220798	0.154624
12.1	5.7344	71680	70	0.0414869	0.1829	0.112213
12.2	0.24576	3072	3	0.131365	0.135444	0.133177
12.3	5.3248	66560	65	0.0939887	0.224521	0.158877
12.4	3.11296	38912	38	0.111841	0.189353	0.14995
12.5	7.04512	88064	86	0.0329398	0.204702	0.111067
12.6	3.11296	38912	38	0.0324412	0.0346518	0.0334356
12.7	4.25984	53248	52	0.0341585	0.130463	0.0794099
12.8	0.8192	10240	10	0.113562	0.132601	0.123082
12.9	3.35872	41984	41	0.116885	0.20666	0.16104
13	2.8672	35840	35	0.134915	0.209721	0.173235
13.1	4.75136	59392	58	0.106767	0.229167	0.167732
13.2	3.52256	44032	43	0.111067	0.198095	0.154295
13.3	4.25984	53248	52	0.090994	0.206617	0.148307
13.4	1.96608	24576	24	0.130683	0.185103	0.158291
13.5	3.93216	49152	48	0.113467	0.225028	0.168536
13.6	1.6384	20480	20	0.14633	0.204879	0.176969
13.7	3.11296	38912	38	0.126332	0.237977	0.181041
13.8	1.88416	23552	23	0.125171	0.215097	0.172687
13.9	2.12992	26624	26	0.137815	0.219524	0.18077
14	2.048	25600	25	0.127215	0.230777	0.174081
14.1	1.06496	13312	13	0.146559	0.207898	0.17581
14.2	1.06496	13312	13	0.145524	0.225978	0.184333
14.3	1.2288	15360	15	0.133584	0.208559	0.170753
14.4	0.98304	12288	12	0.150273	0.217082	0.185953
14.5	0.90112	11264	11	0.151961	0.237892	0.200946
14.6	0.4096	5120	5	0.16999	0.22457	0.197826
14.7	0.65536	8192	8	0.200383	0.257668	0.229026
14.8	0.65536	8192	8	0.173407	0.237519	0.208194
14.9	0.4096	5120	5	0.170982	0.25833	0.222848
15	0.4096	5120	5	0.187697	0.228623	0.214167
15.1	0.65536	8192	8	0.193514	0.257626	0.226935
15.2	0.49152	6144	6	0.184271	0.278436	0.239318
15.3	0.65536	8192	8	0.184618	0.255556	0.213431
15.4	0.4096	5120	5	0.201308	0.258618	0.234332
15.5	0.4096	5120	5	0.197542	0.282159	0.237666
15.6	0.32768	4096	4	0.17875	0.267471	0.225159
15.7	0.32768	4096	4	0.23779	0.262341	0.250407
15.8	0.16384	2048	2	0.251757	0.306362	0.279059
15.9	0.65536	8192	8	0.190698	0.301231	0.238285
16	0.08192	1024	1	0.261967	0.261967	0.261967
16.1	0.57344	7168	7	0.195447	0.307354	0.251791
16.2	0.08192	1024	1	0.273551	0.273551	0.273551
16.3	0	0	0	-	-	-
16.4	0.24576	3072	3	0.251019	0.361594	0.299252
16.5	0.08192	1024	1	0.315503	0.315503	0.315503
16.6	0.16384	2048	2	0.333592	0.367717	0.350654
16.7	0.16384	2048	2	0.317539	0.344837	0.331188
16.8	0	0	0	-	-	-
16.9	0.08192	1024	1	0.334575	0.334575	0.334575
17	0.08192	1024	1	0.363578	0.363578	0.363578
17.1	0.08192	1024	1	0.348426	0.348426	0.348426
17.2	0	0	0	-	-	-
17.3	0	0	0	-	-	-
17.4	0	0	0	-	-	-
17.5	0.08192	1024	1	0.64741	0.64741	0.64741
17.6	0	0	0	-	-	-
17.7	0	0	0	-	-	-
17.8	0	0	0	-	-	-
17.9	0	0	0	-	-	-
18	0	0	0	-	-	-
18.1	0	0	0	-	-	-
18.2	0	0	0	-	-	-
18.3	0	0	0	-	-	-
18.4	0	0	0	-	-	-
18.5	0	0	0	-	-	-
18.6	0	0	0	-	-	-
18.7	0	0	0	-	-	-
18.8	0	0	0	-	-	-
18.9	0	0	0	-	-	-
19	0	0	0	-	-	-
19.1	0	0	0	-	-	-
19.2	0	0	0	-	-	-
19.3	0	0	0	-	-	-
19.4	0	0	0	-	-	-
19.5	0	0	0	-	-	-
19.6	0	0	0	-	-	-
19.7	0	0	0	-	-	-
19.8	0	0	0	-	-	-
19.9	0	0	0	-	-	-
