time	1.0.0.2:49153 -> 7.0.0.2:30000 (TCP)	7.0.0.2:30000 -> 1.0.0.2:49153 (TCP)	10.0.0.5:2152 -> 10.0.0.6:2152 (UDP)	
0.1
0.2	0.40192	0.00832	0
0.3	1.35648	0.03744	0
0.4	3.16512	0.104	0
0.5	2.86368	0.23296	0
0.6	2.66272	0.22464	0
0.7	2.61248	0.14976	0
0.8	2.91392	0.11232	0
0.9	3.36608	0.12064	0
1	3.2656	0.14976	0
1.1	2.96416	0.13728	0
1.2	4.0192	0.1456	0
1.3	3.96896	0.15808	0
1.4	3.96896	0.1664	0
1.5	4.42112	0.17888	0
1.6	4.67232	0.19136	0
1.7	4.67232	0.19552	0
1.8	4.67232	0.19136	0
1.9	4.72256	0.19136	0
2	4.7728	0.19136	0
2.1	4.67232	0.19136	0
2.2	4.67232	0.19552	0
2.3	4.67232	0.19136	0
2.4	4.67232	0.19136	0
2.5	3.91872	0.2496	0
2.6	3.11488	0.14976	0
2.7	3.16512	0.13728	0
2.8	3.06464	0.13728	0
2.9	3.21536	0.13312	0
3	3.96896	0.13728	0
3.1	3.66752	0.17056	0
3.2	3.81824	0.15392	0
3.3	4.16992	0.1664	0
3.4	4.67232	0.19552	0
3.5	4.72256	0.19136	0
3.6	4.67232	0.19136	0
3.7	4.7728	0.19136	0
3.8	4.67232	0.19136	0
3.9	4.67232	0.19552	0
4	4.72256	0.19136	0
4.1	4.67232	0.19136	0
4.2	4.7728	0.19136	0
4.3	4.67232	0.19136	0
4.4	3.21536	0.2496	0
4.5	2.91392	0.13312	0
4.6	2.66272	0.12064	0
4.7	3.66752	0.12064	0
4.8	3.56704	0.15808	0
4.9	3.61728	0.15392	0
5	3.66752	0.15392	0
5.1	4.2704	0.15808	0
5.2	4.42112	0.19136	0
5.3	4.67232	0.19136	0
5.4	4.67232	0.19136	0
5.5	4.82304	0.19136	0
5.6	4.67232	0.19136	0
5.7	4.67232	0.19552	0
5.8	4.67232	0.19136	0
5.9	4.67232	0.19136	0
6	4.7728	0.19136	0
6.1	4.67232	0.19136	0
6.2	3.66752	0.27872	0
6.3	3.06464	0.13312	0
6.4	2.96416	0.11648	0
6.5	3.61728	0.12896	0
6.6	3.2656	0.14976	0
6.7	3.16512	0.1456	0
6.8	4.16992	0.13728	0
6.9	4.0192	0.17472	0
7	4.06944	0.17472	0
7.1	4.67232	0.19136	0
7.2	4.82304	0.19136	0
7.3	4.67232	0.19136	0
7.4	4.67232	0.19552	0
7.5	4.67232	0.19136	0
7.6	4.72256	0.19136	0
7.7	4.7728	0.19136	0
7.8	4.67232	0.19136	0
7.9	1.10528	0.11648	0
8	0	0	0
8.1	0	0	0
8.2	2.96416	0.04992	0
8.3	0.20096	0.0832	0
8.4	0.20096	0.01248	0
8.5	0.35168	0.03744	0
8.6	0.90432	0.04576	0
8.7	1.35648	0.09984	0
8.8	1.80864	0.13728	0
8.9	1.45696	0.1664	0
9	0.45216	0.0416	0
9.1	1.15552	0.01248	0
9.2	1.7584	0.1456	0
9.3	0.95456	0.07904	0
9.4	1.60768	0.05824	0
9.5	1.85888	0.05824	0
9.6	2.11008	0.0832	0
9.7	1.40672	0.08736	0
9.8	2.41152	0.06656	0
9.9	2.56224	0.104	0
10	2.56224	0.11232	0
10.1	2.2608	0.11232	0
10.2	3.11488	0.09568	0
10.3	3.2656	0.13728	0
10.4	3.06464	0.13728	0
10.5	3.11488	0.13312	0
10.6	3.96896	0.13728	0
10.7	3.66752	0.1664	0
10.8	3.768	0.15808	0
10.9	4.22016	0.1664	0
11	4.67232	0.19136	0
11.1	4.67232	0.19552	0
11.2	0.44608	0.07072	0
11.3	0	0	0
11.4	0	0	0
11.5	0	0	0
11.6	0	0	0
11.7	0	0	0
11.8	0	0	0
11.9	0	0	0
12	0	0	0
12.1	0	0	0
12.2	0	0	0
12.3	0	0	0
12.4	0	0	0
12.5	0	0	0
12.6	0	0	0
12.7	0	0	0
12.8	0	0	0
12.9	0	0	0
13	0	0	0
13.1	0	0	0
13.2	0	0	0
13.3	0	0	0
13.4	0	0	0
13.5	0	0	0
13.6	0	0	0
13.7	0	0	0
13.8	0	0	0
13.9	0	0	0
14	0	0	0
14.1	0	0	0
14.2	0	0	0
14.3	0	0	0
14.4	0	0	0
14.5	0	0	0
14.6	0	0	0
14.7	0	0	0
14.8	0	0	0
14.9	0	0	0
15	0	0	0
15.1	0	0	0
15.2	0	0	0
15.3	0	0	0
15.4	0	0	0
15.5	0	0	0
15.6	0	0	0
15.7	0	0	0
15.8	0	0	0
15.9	0	0	0
16	0	0	0
16.1	0	0	0
16.2	0	0	0
16.3	0	0	0
16.4	0	0	0
16.5	0	0	0
16.6	0	0	0
16.7	0	0	0
16.8	0	0	0
16.9	0	0	0
17	0	0	0
17.1	0	0	0
17.2	0	0	0
17.3	0	0	0
17.4	0	0	0
17.5	0	0	0
17.6	0	0	0
17.7	0	0	0
17.8	0	0	0
17.9	0	0	0
18	0	0	0
18.1	0	0	0
18.2	0	0	0
18.3	0	0	0
18.4	0	0	0
18.5	0	0	0
18.6	0	0	0
18.7	0	0	0
18.8	0	0	0
18.9	0	0	0
19	0	0	0
19.1	0	0	0
19.2	0	0	0
19.3	0	0	0
19.4	0	0	0
19.5	0	0	0
19.6	0	0	0
19.7	0	0	0
19.8	0	0	0
19.9	0	0	0
